{ 'id':'prefabware.ui.tests.iconLabel', 
  'comment'    : 'for resourcetest',
'extensions' : [
  					
					{'extensionPoint':'prefabware.resource.resource'
  									  ,'namespace':'prefabware.plugins.prefabware.ui.tests.iconLabel.nls'
  									  ,'matcher'   : {
  									  	'comment':'a matcher with value is obligatory for this extension'
									  	,'value'  : 'icon'
        											 },  									  
  									  },
					{'extensionPoint':'prefabware.resource.resource'
  									  ,'namespace':'prefabware.plugins.prefabware.ui.tests.iconLabel.nls'
  									  ,'matcher'   : {
  									  	'comment':'a matcher with value is obligatory for this extension'
									  	,'value'  : 'label'
        											 },  									  
  									  }
				],
'dependencies' : [
{id:'prefabware.ui'},
{'namespace':'prefabware.plugins','id':'prefabware.action.base'}
]  					  									  
}