{
   "pfw_type":"prefabware.model.EntityType",
   "name":"com.prefabware.business.letter.Letter",
   "attributes":[
      {
         "pfw_type":"prefabware.model.Attribute",
         "name":"title",
         "type":"prefabware.model.StringType",
         "length":25
      }
     ]
}