
{ 'id':'prefabware.business.letter.tests', 
  'comment'    : 'to test ui plugin',
'extensions' : [
{'extensionPoint':'prefabware.server.server',
  									  'id':'loclhost',
  									  'url':'http://localhost:8080/business-letter'									  
  									  }	,
{'extensionPoint':'prefabware.server.server', 
									  'id'     :'prefabware.server.model',
  									  'url':'http://localhost:8080/business-letter/api'
									   },
									  	
	{'extensionPoint':'prefabware.ui.messageprovider'},  
],
'dependencies' : [
 {'namespace':'prefabware.plugins','id':'prefabware.business.commons'},  					
 {'namespace':'prefabware.plugins','id':'prefabware.business.letter'},  					
 {'namespace':'prefabware.plugins','id':'prefabware.action.base'}  					
 ]  	
}