{
	"pfw_type":"prefabware.model.ValueType"
	,"name":"com.prefabware.business.commons.BaseQuantitiyUnit"
	,"enumeration":true
	,"elements":[
		{"name":"METER","value":"METER"}
		,{"name":"GRAM","value":"GRAM"}
		,{"name":"SECOND","value":"SECOND"}
		,{"name":"PIECE","value":"PIECE"}
		,{"name":"SQUARE_METER","value":"SQUARE_METER"}
		,{"name":"CUBIC_METER","value":"CUBIC_METER"}
	]}