{
   "pfw_type":"prefabware.model.ValueType",
   "name":"com.prefabware.business.commons.Amount", 
   "attributes":[
      {
         "pfw_type":"prefabware.model.Attribute",
         "name":"value",
         "type":"prefabware.model.DecimalType",
         "length":10,
         "decimals":2
      },
      {
         "pfw_type":"prefabware.model.ReferenceAttribute",
         "name":"currency",
         "type":"com.prefabware.business.commons.Currency",
          "containment":false
      },      
   ]
}