{'id':'prefabware.action.base',
'comment'    : 'basic actions, normally required by all app',
'extensions' : [
  						{'extensionPoint':'prefabware.action.action',
         							  'actionClass':'prefabware.plugins.prefabware.action.ActionClose',
         							  'matcher'   : {
					 					'actionId'   : 'close',
					 					'order'     : 9999,
         							  	'comment'   :'do NOT define a type here',
					              					}
  									  },
  									  
					{'extensionPoint':'prefabware.action.action',
         							  'actionClass':'prefabware.plugins.prefabware.action.ActionDelete',
         							  'matcher'   : {
					 					'actionId'   : 'delete',
					 					'order'     : 9999,
         							  	'type':'.*',
					              					}
  									  },
  									  
					{'extensionPoint':'prefabware.action.action',
         							  'actionClass':'prefabware.plugins.prefabware.action.ActionCreate',
         							  'matcher'   : {
					 					'actionId'   : 'create',
					 					'order'     : 9999,
         							  	'type':'.*',
					              					}
  									  },
					{'extensionPoint':'prefabware.action.action',
         							  'actionClass':'prefabware.plugins.prefabware.action.ActionCreate',
         							  'matcher'   : {
					 					'actionId'   : 'refresh',
					 					'order'     : 9999,
         							  	'type':'.*',
					              					}
  									  },
					{'extensionPoint':'prefabware.action.action',
         							  'actionClass':'prefabware.plugins.prefabware.action.ActionSave',
         							  'matcher'   : {
					 					'actionId'   : 'save',
					 					'order'     : 9999,
         							  	'type':'.*',
					              					}
         							  },

					{'extensionPoint':'prefabware.action.action',
         							  'actionClass':'prefabware.plugins.prefabware.action.ActionOpenView',
         							   'matcher'   : {
					 					'actionId'   : 'openView',
					 					'order'     : 9999,
         							  	'type':'.*',
					              					}
  									  },
					{'extensionPoint':'prefabware.action.action',
         							  'actionClass':'prefabware.plugins.prefabware.action.ActionOpenEditor',
         							   'matcher'   : {
					 					'actionId'   : 'openEditor',
         							    'order'     : 9999,
         							  	'type':'.*',
					              					}
  									  }
  							],
'comment':'this plugin has a dependency on prefabware.action, which we cannot declare, it would lead to a cycle',  							
'dependencies' : [

]  							
}