{ "id":"prefabware.adapto.widgets",
"comment":"basic widgets, without navigation",
"extensionPoints" : [],
"extensions"   :[ 		

					 	{"extensionPoint":"prefabware.bootstrap.actionButton",
 										  "id":"prefabware.bootstrap.actionButton",
 										   "override":true,									  
 										  "widgetClass":"prefabware.plugins.prefabware.bootstrap.widgets.ActionButton",
 										  "templates":"prefabware.plugins.prefabware.adapto.widgets.ActionButton.html"
 										  },
						{"extensionPoint":"prefabware.bootstrap.box",
 										  "comment":"a box for forms and views",
 										  "id":"prefabware.bootstrap.box", 	
 										   "override":true,
 										   "widgetOptions":{
 										  			"actionOptions":{}
 										  			},									  
 										  "widgetClass":"prefabware.plugins.prefabware.adminlte.widgets.Box"},
						 										  				
],  
"dependencies" : [{"namespace":"prefabware.plugins","id":"prefabware.bootstrap"},
 				  ]  		           
}