
{ 'id':'prefabware.server.tests', 
  'comment'    : 'for servertest',
'extensions' : [
  					
					{'extensionPoint':'prefabware.server.server',
  									  'id':'allDetails',
  									  'scheme':'http://',
									  'user':'aUser',
									  'password':'aPassword',
									  'host':'ahost.com',
									  'port':'1234',
									  'urlPath':'a/b/c',
  									  }	,				
					{'extensionPoint':'prefabware.server.server',
  									  'id':'allDetailsWoUserPwd',
  									  'scheme':'http://',
									  'host':'ahost.com',
									  'port':'1234',
									  'urlPath':'a/b/c',
  									  }	,				
					{'extensionPoint':'prefabware.server.server',
  									  'id':'allDetailsWoUserPwdPort',
  									  'scheme':'http://',
									  'host':'ahost.com',
									  'urlPath':'a/b/c',
  									  }	,				
					{'extensionPoint':'prefabware.server.server',
  									  'id':'allDetailsWoUserPwdPortUrlPath',
  									  'scheme':'http://',
									  'host':'ahost.com',
  									  }		,			
					
					{'extensionPoint':'prefabware.server.server',
  									  'id':'woAll',
  									  }	,				
					{'extensionPoint':'prefabware.server.server',
  									  'id':'urlOnly',
  									  'url':'http://localhost:8080/prefabware-appdriver'									  
  									  }					
  							]
}