{'id':'prefabware.model.service','description':'creates a the TypeLoaderServer as the ONLY typeloader',
'extensions' : [
					{'extensionPoint':'prefabware.model.typeLoader',
							 'id':'typeTypeLoader1',
							 'className':'prefabware.plugins.prefabware.model.ExtensionTypeLoaderService'							
					},
					{'extensionPoint':'prefabware.service.service',
									  'id'     :'prefabware.service.model',
									  'className':'prefabware.plugins.prefabware.model.ExtensionModelService',						
									  'serverId' :'prefabware.server.model',
  									  'urlPath':'modelService'
  									  },		  									  				
  							],  
'dependencies' : [
		{'namespace':'prefabware.plugins','id':'prefabware.model'},
		{'namespace':'prefabware.plugins','id':'prefabware.server'},
		{'namespace':'prefabware.plugins','id':'prefabware.service'}
	]	  							
}