{
   "pfw_type":"prefabware.model.EntityType",
   "name":"com.prefabware.business.commons.Currency",
   "attributes":[
      {
         "pfw_type":"prefabware.model.Attribute",
         "name":"code",
         "type":"prefabware.model.StringType",
         "length":3
      },
      {
         "pfw_type":"prefabware.model.Attribute",
         "name":"symbol",
         "type":"prefabware.model.StringType",
          "length":1
      },
      {
         "pfw_type":"prefabware.model.Attribute",
         "name":"decimals",
         "type":"prefabware.model.NumberType",
          "length":1,
          "_default":2,
      },
      {
         "pfw_type":"prefabware.model.Attribute",
         "name":"description",
         "type":"prefabware.model.StringType",
          "length":50
      }
   ]
}